%YAML 1.1
%TAG !u! tag:unity3d.com,2011:
--- !u!114 &-7303721277856431096
MonoBehaviour:
  m_ObjectHideFlags: 0
  m_CorrespondingSourceObject: {fileID: 0}
  m_PrefabInstance: {fileID: 0}
  m_PrefabAsset: {fileID: 0}
  m_GameObject: {fileID: 0}
  m_Enabled: 1
  m_EditorHideFlags: 0
  m_Script: {fileID: 11500000, guid: 0acaf75cc66fc934ea46bf602fc7c245, type: 3}
  m_Name: 
  m_EditorClassIdentifier: 
  enabled: 1
  distributionList:
    distributions:
    - distributionName: DistributionName
      enabled: 1
  architectures:
  - target: 20
    name: WebGL
    enabled: 1
    binaryNameFormat: '{0}'
  variants: []
  platformName: WebGL
  dataDirNameFormat: '{0}_Data'
  targetGroup: 13
--- !u!114 &-4610873708969533227
MonoBehaviour:
  m_ObjectHideFlags: 0
  m_CorrespondingSourceObject: {fileID: 0}
  m_PrefabInstance: {fileID: 0}
  m_PrefabAsset: {fileID: 0}
  m_GameObject: {fileID: 0}
  m_Enabled: 1
  m_EditorHideFlags: 0
  m_Script: {fileID: 11500000, guid: 2786f6b2301a94f4288672ff5305244c, type: 3}
  m_Name: 
  m_EditorClassIdentifier: 
  enabled: 1
  distributionList:
    distributions: []
  architectures:
  - target: 5
    name: Windows x86
    enabled: 1
    binaryNameFormat: '{0}.exe'
  - target: 19
    name: Windows x64
    enabled: 0
    binaryNameFormat: '{0}.exe'
  variants:
  - variantName: Build Output
    selectedIndex: 0
    values:
    - App
    - Visual Studio Solution
  platformName: PC
  dataDirNameFormat: '{0}_Data'
  targetGroup: 1
--- !u!114 &-2080556046365824269
MonoBehaviour:
  m_ObjectHideFlags: 0
  m_CorrespondingSourceObject: {fileID: 0}
  m_PrefabInstance: {fileID: 0}
  m_PrefabAsset: {fileID: 0}
  m_GameObject: {fileID: 0}
  m_Enabled: 1
  m_EditorHideFlags: 0
  m_Script: {fileID: 11500000, guid: de0f7a04940394844a505e73c3eb8cec, type: 3}
  m_Name: ZipFileOperation
  m_EditorClassIdentifier: 
  actionType: 1
  actionName: ZipFileOperation
  note: 
  actionEnabled: 1
  configureEditor: 0
  filter:
    condition: 0
    clauses: []
  inputPath: $BUILDPATH
  outputPath: $BUILDPATH
  outputFileName: $PRODUCT_NAME-$RELEASE_TYPE-$YEAR_$MONTH_$DAY_$VERSION.zip
--- !u!114 &11400000
MonoBehaviour:
  m_ObjectHideFlags: 0
  m_CorrespondingSourceObject: {fileID: 0}
  m_PrefabInstance: {fileID: 0}
  m_PrefabAsset: {fileID: 0}
  m_GameObject: {fileID: 0}
  m_Enabled: 1
  m_EditorHideFlags: 0
  m_Script: {fileID: 11500000, guid: 3d5886119a5c7b34d8872ab527ca3e1b, type: 3}
  m_Name: SuperUnityBuildSettings
  m_EditorClassIdentifier: 
  _basicSettings:
    baseBuildFolder: C:\Users\sand3\Desktop\Build
    buildPath: $VERSION
    openFolderPostBuild: 1
  _productParameters:
    buildCounter: 6
    buildVersion: 1.0.0.6
    versionTemplate: 1.0.0.$BUILD
    autoGenerate: 1
    syncWithPlayerSettings: 0
  _releaseTypeList:
    releaseTypes:
    - typeName: Prototype
      bundleIdentifier: com.DefaultCompany.Breakmyball
      companyName: DefaultCompany
      productName: Break my ball
      buildOptions: 0
      customDefines: 
      sceneList:
        enabledScenes:
        - fileGUID: 605111e6d02b3804a84a5ea3253dfe81
        - fileGUID: 2cda990e2423bbf4892e6590ba056729
  _platformList:
    platforms:
    - {fileID: 6867206931495982739}
    - {fileID: -4610873708969533227}
  _projectConfigurations:
    configSet:
      _Buckets: 05000000ffffffffffffffff03000000ffffffff01000000ffffffff
      _HashCodes: e8a5b5642c4c406e62a05d62fad57e5b70ea0c7d6c1dc87600000000
      _Next: ffffffffffffffffffffffff00000000020000000400000000000000
      _Count: 6
      _Version: 6
      _FreeList: -1
      _FreeCount: 0
      _Keys:
      - Prototype/WebGL/WebGL/DistributionName
      - Prototype/WebGL/WebGL
      - Prototype/WebGL
      - Prototype/PC/Windows x86 (App)
      - Prototype/PC
      - Prototype
      - 
      _Values:
      - enabled: 1
        childKeys: []
      - enabled: 1
        childKeys:
        - Prototype/WebGL/WebGL/DistributionName
      - enabled: 1
        childKeys:
        - Prototype/WebGL/WebGL
      - enabled: 0
        childKeys: []
      - enabled: 1
        childKeys:
        - Prototype/PC/Windows x86 (App)
      - enabled: 1
        childKeys:
        - Prototype/WebGL
        - Prototype/PC
      - enabled: 1
        childKeys: []
    showViewOptions: 0
    showConfigs: 0
    showBuildInfo: 0
    hideDisabled: 0
    treeView: 0
    selectedKeyChain: 
  _preBuildActions:
    buildActions: []
  _postBuildActions:
    buildActions:
    - {fileID: -2080556046365824269}
--- !u!114 &6867206931495982739
MonoBehaviour:
  m_ObjectHideFlags: 0
  m_CorrespondingSourceObject: {fileID: 0}
  m_PrefabInstance: {fileID: 0}
  m_PrefabAsset: {fileID: 0}
  m_GameObject: {fileID: 0}
  m_Enabled: 1
  m_EditorHideFlags: 0
  m_Script: {fileID: 11500000, guid: 0acaf75cc66fc934ea46bf602fc7c245, type: 3}
  m_Name: 
  m_EditorClassIdentifier: 
  enabled: 1
  distributionList:
    distributions:
    - distributionName: DistributionName
      enabled: 1
  architectures:
  - target: 20
    name: WebGL
    enabled: 1
    binaryNameFormat: '{0}'
  variants: []
  platformName: WebGL
  dataDirNameFormat: '{0}_Data'
  targetGroup: 13
